…
``` r
library(ggthemes)
load("ipums_hw_data.RData")
ipums_hw_data
```

    # A tibble: 2,798 × 8
        YEAR  SERIAL  PERWT HHINCOME RACE  RACED POVERTY SPMPOV        
       <int>   <dbl>  <dbl>    <dbl> <fct> <fct>   <dbl> <fct>         
     1  2013  782791  5215.    30000 White White     127 In poverty    
     2  2014 1045362 12573    145000 White White     501 Not in poverty
     3  2013  436423 11906.   185204 White White     501 Not in poverty
     4  2010 1183930  8089.   133000 White White     501 Not in poverty
     5  2016  976108  8428.   165000 White White     501 Not in poverty
     6  2011  556094  9900     92000 White White     407 In poverty    
     7  2016 1214893  7424.   120000 White White     422 Not in poverty
     8  2013  675831  8167.    92700 White White     299 Not in poverty
     9  2012   29649  6401.   122000 White White     443 Not in poverty
    10  2018 1373978  4001.    76000 White White     501 Not in poverty
    # ℹ 2,788 more rows
…
